{
  "users": [
    {
      "id": 1,
      "name": "Ivan",
      "surname": "Ivanov",
      "nickname": "Ivan",
      "registered": "13/06/2016"
    },
    {
      "id": 2,
      "name": "Sergey",
      "surname": "Smirnov",
      "nickname": "serg",
      "registered": "10/06/2016"
    }
  ]
}